SERIE,SIC,MODELO,RESPALDO,Nivel de autenticación,Contraseña (lectura),Tipo de autenticación,Medio,Host,Puerto,Período de integración,Contraseña (configuración),Factor multiplicativo
12447915,FRT10116,Elster Electricity LLC,P,Alto,1.23457E+39,Hexadecimal,NET,172.32.171.198,2330,15,1.23457E+39,20
2838583,FRT07482,Elster Electricity LLC,P,Alto,0,Hexadecimal,NET,172.32.131.165,2330,15,1.23457E+39,660
1474924,FRT03283,Elgama-Elektronika Ltd,P,Bajo,160956F4,ASCII,NET,172.32.131.68,2330,15,15F7D963,440
1474935,FRT04213,Elgama-Elektronika Ltd,P,Bajo,160957A5,ASCII,NET,172.32.131.69,2330,15,15F81383,30
1474919,FRT04249,Elgama-Elektronika Ltd,P,Bajo,15F815C9,ASCII,NET,172.32.133.46,2330,15,160956A9,20
1474939,FRT04317,Elgama-Elektronika Ltd,P,Bajo,1.61E+14,ASCII,NET,172.32.147.85,2330,15,15F81A07,110
1474905,FRT05032,Elgama-Elektronika Ltd,P,Bajo,160955C5,ASCII,NET,172.32.176.179,2330,15,15F846B2,20
1474916,FRT05102,Elgama-Elektronika Ltd,P,Bajo,16095676,ASCII,NET,172.32.178.135,2330,15,15F84B12,40
1474912,FRT05128,Elgama-Elektronika Ltd,P,Bajo,16095632,ASCII,NET,172.32.176.181,2330,15,15F84CB8,60
1393413,FRT05191,Elgama-Elektronika Ltd,P,Bajo,160DDA83,ASCII,NET,172.32.131.78,2330,15,15F850A1,60
1474908,FRT05216,Elgama-Elektronika Ltd,P,Bajo,160955F8,ASCII,NET,172.32.188.136,2330,15,15F85236,60
1474915,FRT05266,Elgama-Elektronika Ltd,P,Bajo,16095665,ASCII,NET,172.32.129.9,2330,15,15F85556,60
1474900,FRT05601,Elgama-Elektronika Ltd,P,Bajo,16095570,ASCII,NET,172.32.176.172,2330,15,15F86A41,30
1474940,FRT05710,Elgama-Elektronika Ltd,P,Bajo,160957F0,ASCII,NET,172.32.135.70,2330,15,15F87110,20
1474903,FRT05859,Elgama-Elektronika Ltd,P,Bajo,160955A3,ASCII,NET,172.32.176.173,2330,15,15F87A69,20
1474950,FRT05982,Elgama-Elektronika Ltd,P,Bajo,16095890,ASCII,NET,172.32.189.130,2330,15,15F88212,20
1474904,FRT06123,Elgama-Elektronika Ltd,P,Bajo,160955B4,ASCII,NET,172.32.184.140,2330,15,15F88AE3,20
901933,FRT06180,Elgama-Elektronika Ltd,P,Bajo,15F78503,ASCII,NET,172.32.176.174,2330,15,15F88E70,60
,,,,,,,,,,,,
,,,,,,,,,,,,
,,,,,,,,,,,,
,,,,,,,,,,,,
,,,,,,,,,,,,
,,,,,,,,,,,,
,,,,,,,,,,,,
,,,,,,,,,,,,
,,,,,,,,,,,,
,,,,,,,,,,,,
,,,,,,,,,,,,
,,,,,,,,,,,,
,,,,,,,,,,,,
,,,,,,,,,,,,
,,,,,,,,,,,,
,,,,,,,,,,,,
,,,,,,,,,,,,
,,,,,,,,,,,,
,,,,,,,,,,,,
,,,,,,,,,,,,
,,,,,,,,,,,,
,,,,,,,,,,,,
,,,,,,,,,,,,
,,,,,,,,,,,,
,,,,,,,,,,,,
,,,,,,,,,,,,
,,,,,,,,,,,,
,,,,,,,,,,,,
