﻿Frt05135,P,0.36,0.56,0.48,0.48,0.44,0.44,0.44,0.4,0.48,0.68,0.92,0.96,1.08,0.88,0.4,0.44,0.4,0.4,0.48,0.44,0.44,0.4,0.48,0.48
Frt05216,P,9.3768,9.0288,9.3912,8.988,9.2664,7.644,13.4544,19.5672,19.7832,36.6168,70.3968,35.7384,21.54,22.836,20.7288,19.5792,10.8048,8.6256,8.772,9.1344,9.2424,9.432,9.3624,9.3216
Frt08382,P,2.456,2.616,2.464,2.504,2.44,2.624,2.48,2.464,2.488,2.696,2.704,2.68,2.712,2.68,2.808,2.76,2.696,2.664,2.648,2.464,2.656,2.472,2.688,2.48
Frt07219,P,1.28,1.28,1.28,1.28,1.2,1.52,1.2,1.2,1.2,1.36,1.36,1.44,1.2,1.2,1.28,1.28,1.28,1.28,1.6,1.52,1.36,1.36,1.2,1.28
Frt11523,P,0.08,0.24,0.08,0.16,0.16,0.24,0.16,0.24,0.16,0.16,0.16,0,0,0.08,0,0.08,0.24,0.32,0.24,0.16,0.16,0.08,0.16,0.16
Frt08701,P,10.96,11.04,11.28,11.28,11.2,10.24,13.76,13.84,12.56,9.28,9.92,12.48,12.16,10.72,6.32,6.24,5.68,12.4,15.6,15.6,14.08,12,10.72,11.2
Frt23139,P,3.828,3.96,4.004,4.048,3.96,3.652,2.948,2.86,3.168,4.84,5.544,5.28,4.928,3.828,3.696,3.74,3.828,3.52,3.564,4.136,4.18,4.268,4.268,4.444
Frt06649,P,2.652,0.5984,0.1976,0.1944,0.1968,0.1944,0.1944,0.1936,0.852,7.8136,10.908,10.7528,10.7664,10.9576,10.964,10.9592,11.0088,10.9944,11.0592,10.8848,10.7352,2.7384,0.192,0.1936
Frt08413,P,10.5024,10.368,10.32,10.3296,10.6624,10.3392,9.7984,10.3648,10.2624,10.8992,10.6848,11.12,10.592,10.5536,10.8992,10.816,10.9408,10.8768,12.1888,11.9776,11.7792,11.5552,11.1584,10.8064
Frt06608,P,6.992,6.372,6.236,5.808,5.712,5.884,5.544,5.884,6.04,6.788,7.468,7.884,7.036,5.952,5.248,4.896,5.024,5.144,6.908,6.824,6.428,5.468,5.312,5.152
Frt08591,P,23.2608,21.8608,21.0496,20.952,20.7328,22.168,24.5152,32.5504,30.9088,30.9232,29.6688,29.1312,29.8848,29.6912,28.8656,29.5232,28.3232,29.5376,30.1408,29.5312,28.4464,27.5856,25.496,25.1328
Frt07112,P,1.3416,1.3272,1.3464,1.3368,1.3404,1.2972,1.2876,1.296,1.512,1.3116,1.3008,1.2648,1.2888,1.2324,1.2564,1.2372,1.2492,1.2864,1.254,1.2384,1.2408,1.2756,1.29,1.2756
Frt05102,P,3.2912,2.8528,2.7984,2.8256,2.8128,2.8256,3.7264,4.6096,5.4272,5.0496,4.4128,4.6576,3.9904,3.4544,3.4096,3.6032,3.4576,3.384,3.504,3.4816,3.6432,3.4336,3.2272,3.2064
Frt04975,P,22.8,20.28,17.4,17.4,18.84,20.4,22.08,30.12,30.6,31.56,31.56,29.88,26.76,25.8,23.16,19.08,17.64,14.76,12.96,11.4,11.76,12.84,15.12,15.24
Frt08949,P,5.3248,5.3152,5.3984,5.2336,5.1392,5.1056,4.584,4.6448,4.6992,5.1984,5.44,5.2528,5.3088,5.4576,5.6816,5.6224,5.6864,5.3616,5.488,5.544,5.5296,5.3456,5.3296,5.2688
Frt22844,P,5.94,5.742,5.7552,5.7024,5.7156,5.8212,5.6892,5.7552,5.9268,6.0588,6.1908,6.138,6.0852,6.072,6.0324,6.0324,6.0324,6.1908,6.5208,6.5208,6.3888,6.5208,5.8872,5.6496
Frt02444,P,31.5744,29.8496,28.0676,27.984,27.4472,27.302,29.3964,30.4216,31.1388,32.3004,31.9792,31.9572,31.9968,31.6052,30.1884,29.7616,29.9024,29.3568,30.4436,30.8176,30.4348,30.0916,28.7056,28.3756
Frt02443,P,31.4336,29.304,28.3888,28.2304,28.4592,27.632,25.1856,28.1776,42.5744,80.9248,102.1328,130.9088,95.1808,95.304,125.5584,122.144,68.6224,53.8736,56.2144,51.392,33.3872,25.256,23.9712,22.9856
Frt02455,P,28.5296,28.402,28.3404,27.4208,28.1292,27.9444,35.3364,36.058,37.9016,40.6428,40.5592,40.9288,40.238,40.282,40.48,40.898,40.5724,40.5548,42.1344,42.8296,41.8044,32.4632,30.3952,29.5108
Frt06812,P,1.112,1.116,1.1,1.14,1.496,1.616,0.724,0.832,0.912,0.892,0.912,0.952,0.944,0.884,1.012,0.932,1.176,1.148,1.96,2.096,2.048,2.028,1.412,1.124
Frt06714,P,5.6464,5.6144,5.6496,5.7312,6.8576,6.7856,3.2192,2.7744,3.1152,3.1136,3.2448,2.968,3.008,2.84,3.3104,2.9984,3.4768,3.8944,6.3856,7.3904,6.8016,6.1424,5.7152,5.8112
Frt06713,P,6.28,6.44,6.36,6.08,6,5.96,5.76,6.16,8.52,11.24,12.96,13.96,12.72,13.76,14.64,13.08,12.8,11.8,10.52,8.68,5.32,4.72,4.8,4.56
Frt07978,P,3.368,3.336,3.392,3.392,3.4864,3.4112,2.3856,2.4672,2.5088,2.9712,2.5248,2.44,2.3616,2.2416,3.1872,2.7552,2.448,2.4576,3.4128,3.3936,3.4224,3.432,3.4144,3.4048
Frt06525,P,5.76,5.68,5.6,5.36,5.04,2.88,2.88,3.12,6.88,6.4,6.32,7.12,6.8,6.88,6.64,6.72,7.28,9.6,9.76,7.76,5.52,5.6,5.2,5.2
Frt06278,P,5.1,5.28,5.16,5.28,5.04,3.18,1.86,1.92,2.46,2.7,3.78,3.84,3.96,3.96,3.66,3.54,3.48,5.76,7.62,7.74,6.78,5.94,5.28,5.22
Frt06277,P,3.78,3.66,3.72,3.72,3.78,1.8,1.32,1.2,1.38,1.38,1.44,1.68,1.86,1.62,1.8,1.8,1.62,3.42,4.5,4.62,4.2,3.84,3.72,3.6
Frt07103,P,0.3744,0.3632,0.3392,0.336,0.312,0.408,0.5792,0.4944,0.6992,0.9776,1.0496,0.5056,0.56,0.5664,0.6352,0.9552,1.0816,0.8768,0.536,0.6672,0.6176,0.6128,0.6432,0.4384
Frt08592,P,11.032,1.408,2.1,0,0.012,0.008,0.292,4.692,7.756,9.132,5.12,3.592,5.324,2.276,2.568,7.624,7.188,4.152,9.812,2.448,6.836,5.924,5.76,1.48
Frt05266,P,15.0384,12.9072,8.4456,6.9312,6.2208,6.4128,6.2832,8.0088,7.8744,9.8856,12.9528,14.0208,13.8072,10.6752,9.3072,8.76,9.7944,10.584,11.8848,12.7632,12.6672,11.8536,10.7544,9.8568
Frt06480,P,3.4368,3.2472,3.1776,3.0408,3.0552,2.8368,2.148,2.1048,2.3208,2.6904,3.7248,4.3488,5.6496,4.632,4.9296,4.7352,4.5312,4.5312,5.1576,5.1504,4.9728,4.9608,4.1304,3.2376
Frt07242,P,0,0,0,0,0,0,0,0,0,0,0,0,0,0,0,0,0,0,0,0,0,0,0,0
Frt08608,P,66.792,63.03,59.598,64.218,68.772,70.818,83.028,82.236,81.378,84.744,85.404,85.404,80.718,78.144,80.586,80.19,80.256,78.936,80.388,77.748,71.874,69.762,70.62,67.98
Frt05555,P,29.2336,24.8952,20.9792,19.6592,20.9352,23.9624,30.4568,34.8216,39.5208,45.0296,45.936,50.7056,48.5936,43.8328,43.0584,43.4368,37.356,36.3,37.9632,38.5528,32.6216,31.2576,31.1608,25.3616
Frt06938,P,3.328,2.8416,1.9568,1.576,1.6096,2.1376,2.9856,3.952,5.392,5.5696,5.7104,4.8256,3.1936,2.9168,3.6704,3.4208,3.5648,3.3232,2.7968,3.0064,3.2096,3.5648,2.6448,2.0992
Frt06904,P,77.924,76.12,74.8,72.952,72.292,74.8,79.288,83.864,82.28,83.996,86.548,86.768,83.424,80.168,79.552,79.024,78.32,80.828,87.384,88.748,85.844,83.996,82.324,79.376
Frt05128,P,14.544,13.6464,10.2672,10.5288,12.7392,12.6504,17.7216,22.8384,24.0792,26.2008,29.5344,27.6096,19.5432,18.4776,18.2928,15.9912,14.424,12.6864,18.3384,19.3632,17.0496,16.6056,15.4392,14.976
Frt08384,P,8.5864,8.5152,8.5904,8.6168,8.5064,8.6296,8.6648,8.6672,8.5256,8.68,8.5864,8.4432,8.572,8.9384,9.0232,8.9096,8.648,8.7936,8.8216,9.1184,8.96,8.9152,8.796,8.7608
Frt08383,P,10.7296,10.3936,10.5632,10.5696,10.5536,10.4224,9.312,8.4704,8.6176,8.3424,8.0896,8.5408,8.4992,8.3872,8.5696,8.6016,8.5984,8.5952,9.7696,10.2016,10.128,10.3424,10.1664,9.9648
Frt06123,P,8.08,5.5144,3.588,3.3208,3.5712,3.2048,2.6448,2.6088,2.2992,2.0536,2.708,4.268,4.6752,5.24,4.2368,4.0376,3.792,4.5104,4.7288,5.9168,5.6712,5.7008,5.2896,4.8576
Frt06857,P,0.852,0.8232,0.8184,0.8232,0.8088,0.8928,0.816,0.9,0.9528,0.8832,0.8232,0.8568,0.8592,0.8736,0.8544,0.8592,0.8472,0.8304,0.8664,0.9096,1.0416,0.936,0.9144,0.828
Frt07571,P,37.2,29.84,22.72,20.16,20.48,19.84,24.24,30.88,32.56,35.84,36.8,36.96,37.92,39.12,39.76,37.04,36.08,35.92,38.8,38.48,36.32,35.44,33.36,24.48
Frt05134,P,12.432,12.784,12.672,12.416,12.176,12.432,12.144,12.256,14.528,16.992,17.328,20.8,17.232,16.768,15.344,17.264,15.136,16.288,15.648,14.784,13.344,13.12,12.592,13.056
Frt08310,P,0.6792,0.6432,0.6384,0.6792,0.6552,0.6408,0.6624,0.636,0.6264,0.636,0.6384,0.6408,0.6312,0.648,0.6264,0.6408,0.6408,0.6264,0.6552,0.6552,0.6528,0.6528,0.6528,0.6576
Frt09182,P,55.044,49.9488,45.8568,41.492,41.0168,39.248,41.1664,50.1512,62.6736,62.1104,62.4272,63.6768,59.3296,61.2216,61.072,64.3456,63.9496,55.748,51.304,44.1672,43.8768,43.2608,41.9848,41.2368
Frt04772,P,3.12,3.06,3.3,3.36,3.24,1.74,1.56,1.68,1.74,1.8,1.8,1.92,1.68,1.74,1.56,1.74,1.56,3.9,4.98,4.86,4.8,4.74,4.2,3.36
Frt07235,P,3.456,3.5776,3.6288,3.4016,3.3648,3.4704,2.96,2.632,3.5296,3.6752,3.5728,3.6032,3.4864,2.8848,2.728,2.7408,2.7024,2.6576,3.2304,3.3152,3.2544,3.1536,3.112,3.0784
Frt07406,P,4.352,3.296,2.984,2.968,2.728,2.576,3.816,6.552,10.896,11.624,12.664,12.64,12.608,9.488,7.704,6.368,6.336,7.184,9.344,11.336,13.136,12.528,8.784,5.472
Frt07053,P,3.78,3.108,2.976,2.844,2.424,2.652,3.744,5.412,6.972,7.428,6.996,9.864,10.656,7.992,6.432,4.38,4.716,4.248,7.14,8.544,8.04,7.092,5.28,3.744
Frt04279,P,2.96,2,1.92,1.76,1.76,1.84,2.12,2.6,4.44,5.56,6.44,6.48,7.44,8.56,8.56,7.6,7.44,7.12,7.72,8.4,8.6,9,8.72,5.68
Frt04249,P,8.1976,7.5648,8.2448,7.7768,7.4816,6.848,6.0968,6.7608,13.1856,14.7768,14.2608,14.6512,17.0216,18.2704,19.7824,18.0952,16.2592,16.98,19.8912,20.9672,21.5096,19.86,14.4344,9.2344
Frt04317,P,46.6004,46.552,45.8612,44.2772,44.1232,41.6636,37.51,41.3468,43.6788,43.1288,42.3192,43.9428,51.8804,53.4116,51.1148,48.0788,48.8972,50.314,49.6056,49.6012,49.7024,52.6416,46.3716,40.304
Frt04213,P,10.044,7.8312,6.9528,6.4656,7.176,7.4064,7.3968,10.5972,16.3992,17.4456,18.324,21.012,25.4748,26.2068,26.1036,25.9776,23.91,23.058,23.4576,24.1968,24.7296,24.5316,19.9068,8.946
Frt05982,P,0,0,0,0,0,0,0,0,0,0,0,0,0,0,0,0,0,0,0,0,0,0,0,0
Frt07115,P,4.344,4.3848,4.0272,3.5904,3.5256,3.5592,2.76,2.5824,3.4248,3.5784,3.6936,2.5416,2.0208,2.8056,2.5776,1.6776,1.6752,0.9984,3.2448,4.2768,3.7344,3.5232,3.7176,3.1656
Frt04250,P,11.432,10.08,10.08,9.864,10.728,14.112,19.064,21.632,21.696,21.992,22.776,22.928,25.712,26.488,25.52,23.792,21.176,20.784,21.976,22.272,22.48,22.672,14.976,11.664
Frt05864,P,11.52,11.16,11.4,11.4,11.04,11.52,11.16,11.28,10.8,8.64,11.16,11.04,11.04,11.04,11.16,10.92,11.4,11.4,12.12,12.12,11.64,11.76,11.52,11.04
Frt06180,P,25.2672,24.1616,23.0608,21.5104,21.5152,23.6832,26.2288,38.8704,36.9344,41.1424,41.4496,31.3696,29.5328,29.5696,27.4672,25.9088,24.1872,22.1344,33.6928,31.5184,30.4368,28.6688,27.8304,27.2064
Frt05859,P,4.4552,2.4,1.9016,1.8864,1.8824,1.8784,2.1672,2.4216,3.008,3.1768,3.6088,3.7432,3.7736,4.224,4.0424,3.7072,3.744,4.0064,4.7712,5.1328,5.1856,4.6824,4.5368,2.184
Frt10015,P,6.444,6.0132,5.6172,5.5092,5.4312,5.352,6.348,6.8724,7.5552,8.1696,8.6976,8.3172,8.4348,7.818,7.866,8.3964,7.9344,8.1288,8.412,10.1796,10.08,9.03,8.1396,6.8688
Frt06920,P,4.352,4.3568,4.3296,4.288,4.0464,3.8992,3.9248,4.2112,4.3536,4.488,4.2944,4.6768,4.552,4.4992,4.4016,4.488,5.0528,5.5056,5.9824,5.9888,5.784,5.1456,4.376,4.2272
Frt06922,P,7.5816,7.5416,7.8152,7.9096,7.7424,7.6432,7.0672,7.936,8.204,8.5816,8.1024,7.7336,7.2904,7.468,7.1864,7.2792,7.4632,7.6968,7.8528,8.1464,7.5304,7.0976,7.0688,7.48
Frt06937,P,2.24,2,2.56,2.24,1.36,1.12,1.2,1.28,1.76,1.76,1.52,1.52,1.12,1.28,1.44,1.76,1.68,2.56,2.72,2.88,2.72,2.72,2.56,2.4
Frt07220,P,32.644,30.06,31.264,29.264,30.486,30.916,33.182,40.198,39.234,40.496,41.296,41.512,40.192,36.83,39.85,39.406,37.742,36.41,33.954,34.534,34.324,30.854,30.122,27.08
Frt09299,P,2.468,2.4336,2.4424,2.4352,2.38,2.364,1.9624,1.9944,1.9592,1.9168,1.9248,1.9408,1.9064,1.92,2.0336,2.1536,2.0416,2.116,2.2416,2.1744,2.212,2.1512,2.1976,2.2
Frt07176,P,18.32,17.68,18.256,18.864,19.888,21.104,23.104,27.616,28.544,29.504,30.304,29.92,30.336,29.92,30.352,30.208,30.08,30.496,31.52,31.616,28.784,25.68,22.72,19.52
Frt03841,P,25.5,25.596,25.284,24.264,24.876,25.596,16.356,15.12,17.412,16.416,17.772,17.628,18.288,18.18,16.752,16.644,12.888,13.056,27.24,28.332,27.324,27.036,26.724,25.68
Frt09003,P,0.144,0.1464,0.1464,0.1488,0.144,0.1464,0.1416,0.1344,0.1368,0.1344,0.1296,0.132,0.132,0.1272,0.132,0.1368,0.1344,0.1344,0.1416,0.144,0.1464,0.144,0.1488,0.1464
Frt06986,P,0.104,0.088,0.104,0.096,0.096,0.088,0.08,0.112,0.088,0.112,0.088,0.12,0.096,0.096,0.104,0.088,0.088,0.112,0.088,0.088,0.104,0.096,0.096,0.096
Frt05709,P,13.112,12.892,13.112,12.98,13.288,13.376,12.716,14.168,13.772,13.904,13.772,13.024,11.616,11,11.22,11.264,11.308,11.572,13.464,14.212,14.3,14.08,13.992,12.892
Frt05265,P,31.5744,31.3104,31.1344,31.2928,31.1696,31.8736,32.0672,34.9536,34.5312,34.1264,33.0176,34.3024,32.5952,30.8,30.9056,30.536,31.064,30.9232,31.856,31.6976,32.4016,35.6752,35.112,32.296
Frt03283,P,67.4256,66.8272,67.3024,66.8096,67.1792,66.6336,66.5808,59.5056,55.4048,53.1344,54.5424,54.7008,52.888,52.008,51.216,56.5136,59.8752,62.7264,70.752,66.1584,66.7392,68.2176,67.6192,67.7424
Frt08869,P,91.44,76.8,69.12,67.44,66.72,66,70.32,71.76,83.04,136.08,273.6,290.64,303.84,316.32,325.2,337.2,339.6,341.76,339.6,308.64,196.8,149.76,123.12,98.16
Frt06147,P,0.0192,0.0192,0.0256,0.0224,0.016,0.0256,0.0224,0.016,0.0224,0.0224,0.0192,0.016,0.0224,0.0192,0.0224,0.016,0.0192,0.0224,0.0192,0.0192,0.0192,0.0224,0.0224,0.0192
Frt03282,P,6.38,6.402,6.402,6.424,6.38,6.314,5.28,5.544,5.522,5.764,5.94,5.83,5.698,5.676,5.346,5.412,5.566,5.654,6.446,6.974,6.776,6.798,6.6,5.896
Frt05509,P,3.72,3.6,3.84,3.72,3.72,3.48,4.08,4.44,4.68,4.44,4.08,5.04,4.44,4.44,4.32,4.56,4.44,4.56,5.16,4.92,4.92,4.32,3.96,3.84
Frt10110,P,0.2064,0.1912,0.1832,0.2,0.1936,0.2816,0.2784,0.2304,0.1488,0.1504,0.0944,0.1768,0.2152,0.0648,0.0592,0.084,0.3224,0.1376,0.3952,0.5304,0.3272,0.2632,0.1696,0.1712
Frt10074,P,0.3728,0.3752,0.3752,0.3736,0.3712,0.3056,0.3056,0.3768,0.3704,0.3656,0.3664,0.3616,0.364,0.3608,0.3624,0.3664,0.3656,0.368,0.3664,0.3648,0.3696,0.3712,0.3744,0.372
Frt11237,P,0.8864,0.864,0.8564,0.8428,0.8164,0.6028,0.5408,0.7296,0.808,2.0544,3.994,3.8664,4.7648,5.4584,5.5208,5.162,4.7072,4.438,5.1864,5.6092,5.2848,3.4712,1.1596,0.9832
Frt11727,P,3.3536,3.1768,3.124,3.1656,3.1328,3.2008,2.9016,3.3736,3.7544,3.9072,4.1008,3.8968,2.9024,2.6072,2.5752,2.596,2.636,2.9104,4.6968,5.8824,5.7264,5.3952,5.272,4.0584
Frt10115,P,2.4256,2.4752,2.6336,2.648,2.7688,2.8616,1.9544,2.884,2.9936,4.592,5.3808,5.7528,5.3688,7.1456,7.8976,8.7896,6.4976,1.716,1.8904,2.2736,2.1992,2.3168,2.256,1.8176
Frt10020,P,1.0248,0.9808,0.8508,0.8448,0.9052,0.9728,0.5064,0.5608,0.6836,0.7216,0.814,0.7652,0.8496,0.8156,0.6736,0.7396,0.5752,0.6356,1.018,1.1792,1.0884,1.0408,0.9396,0.8984
Frt11514,P,1.1628,1.104,1.0884,1.0584,0.9876,0.9834,1.317,1.4742,1.3254,1.3662,1.5432,1.4442,1.533,1.4472,1.3722,1.4778,1.4688,1.7352,2.1546,2.3472,2.3826,2.1684,1.9194,1.5708
Frt18507,P,4.6544,4.4356,4.4228,4.2816,4.6724,4.0324,5.5556,8.9436,12.3212,12.8676,13.1748,12.9388,12.7056,12.6032,13.3156,13.1288,13.7796,13.308,14.0448,13.3388,7.002,4.6428,4.3336,4.2688
Frt11505,P,107.7384,106.7616,105.952,106.3128,106.6736,89.3728,91.3528,118.2544,122.8392,116.0544,112.2792,113.6432,108.5128,102.2648,101.5608,106.0224,108.4952,111.804,111.3288,107.3776,106.8232,106.2336,107.3776,107.316
Frt11367,P,6.4352,5.6432,5.6176,5.192,5.1824,4.9696,5.072,5.1264,5.2352,5.2736,5.1856,5.0688,5.0512,5.1712,5.336,5.3744,5.3424,5.2368,6.1152,7.136,7.4176,7.5296,7.2288,7.0288
Frt10075,P,35.208,36.048,36.264,36.792,35.304,35.808,34.704,34.944,35.232,37.944,38.64,39.312,40.776,40.584,40.992,39.552,39.432,38.208,37.608,37.176,37.392,37.464,37.416,37.8
Frt10217,P,2.82,2.6448,2.6784,2.652,2.7,2.5248,2.232,2.196,2.3568,3.4056,3.0384,3.372,3.0312,2.94,2.5944,2.4864,2.6712,2.4072,2.9736,3.5688,3.8664,3.4992,2.808,2.928
Frt11170,P,0.1572,0.1578,0.1608,0.1572,0.159,0.1584,0.1344,0.1188,0.261,0.3894,0.378,0.561,1.425,1.5108,1.4238,1.4244,1.4208,1.4142,1.4802,1.1112,0.5484,0.1554,0.1506,0.1566
Frt13974,P,17.216,16.5912,15.9056,17.5576,19.7992,23.704,32.1992,30.2536,29.9056,32.3128,31.0704,26.7552,24.3864,22.9984,22.2016,22.696,22.1904,20.652,19.036,18.0872,16.8168,17.98,18.2824,17.6192
Frt11506,P,5.128,4.4976,4.2512,3.9768,3.684,3.6392,4.7368,4.652,6.6736,7.5904,8.4064,9.1016,9.8352,8.7496,7.8208,7.4,6.6904,7.1392,9.1488,9.8728,10.3296,10.248,8.7008,7.0232
Frt11438,P,0.2612,0.2608,0.2564,0.2592,0.2604,0.2576,0.252,0.2568,0.2688,0.3016,0.3272,0.3264,0.2812,0.2468,0.2672,0.2608,0.2668,0.2736,0.278,0.2936,0.2796,0.268,0.2996,0.274
Frt12267,P,0.2188,0.2184,0.2196,0.2192,0.2188,0.2188,0.2188,0.2188,0.218,0.22,0.2192,0.2184,0.2196,0.2188,0.2204,0.2188,0.2192,0.2204,0.2192,0.2188,0.2184,0.2208,0.2204,0.22
Frt12266,P,14.5296,13.7984,13.5336,13.104,12.5248,12.6488,10.72,12.2688,20.1288,20.3664,21.8896,23.928,24.7528,26.6408,25.676,24.8224,25.264,22.88,25.5296,24.6056,24.7576,24.5856,18.732,13.8968
Frt10021,P,0.9456,0.9488,0.9596,0.9756,0.9952,0.9872,0.4128,0.4096,0.5256,0.46,0.6256,0.5676,0.6044,0.5708,0.4588,0.63,0.3736,0.4548,3.0628,3.6244,3.51,1.6672,1.0736,0.9744
Frt10124,P,0.948,0.8828,0.8832,0.9688,0.9028,1.5092,1.6,1.2964,1.4348,1.5504,1.4128,1.4408,1.2348,1.2856,1.1804,1.1512,1.2424,1.2692,1.9296,2.178,1.8392,1.212,1.0036,0.9196
Frt12268,P,0.6,0.5748,0.5784,0.5808,0.576,0.5892,0.609,0.5922,0.5766,0.8502,13.569,14.1078,14.073,14.0694,14.1018,5.4606,0.6546,0.6444,0.6756,0.7146,0.702,0.6894,0.6606,0.6048
Frt11366,P,4.0062,3.9492,4.0266,3.9798,4.0182,3.9186,3.5838,3.6036,4.0254,3.879,3.8742,3.7692,3.8694,3.84,4.008,3.9942,3.8496,3.8526,4.0626,4.1778,4.0872,3.9054,3.855,3.849
Frt11524,P,4.0152,3.7576,3.5496,3.2824,3.2136,3.4256,3.9728,4.48,5.24,5.9624,6.1312,5.8384,5.7128,5.904,5.336,5.8456,6.1216,6.4128,7.2656,8.5712,8.5832,7.9608,6.3504,4.7976
Frt10114,P,4.0512,3.1248,2.844,2.7488,2.6368,2.5264,2.7704,3.7152,4.4328,5.0776,5.4928,4.7352,4.8136,5.1384,4.4808,4.8464,5.4808,5.168,6.2432,7.128,7.3416,7.2808,5.6056,4.3152
Frt11236,P,0.5484,0.5124,0.5044,0.4516,0.5192,0.5116,0.474,0.536,0.7276,0.7132,0.978,0.8692,1.1148,1.0068,0.6968,0.7288,0.7832,0.9256,1.0648,1.1484,1.0876,1.0436,0.8384,0.646
Frt06292,P,13.904,13.9524,13.992,13.9392,13.9084,13.8512,13.926,14.1504,14.2736,14.6696,14.8104,14.8456,14.6828,14.8676,14.7972,14.6256,14.4936,14.2956,14.0272,14.08,13.8732,14.058,14.0888,13.8776
Frt05710,P,8.776,8.1256,7.0752,7.1104,7.0912,8.2752,10.5336,10.6368,11.052,10.9744,10.8024,11.0344,11.1512,10.8728,10.8672,10.9984,11.0096,11.128,11.1408,11.3208,11.076,9.696,9.1984,8.3328
Frt05191,P,42.0408,48.5832,50.1408,53.4432,51.6768,39.7608,39.4632,57.5688,47.5368,32.5296,46.788,48.804,34.3896,12.4008,12.0792,7.632,4.008,3.7392,3.9336,4.3152,4.944,18.636,36.9264,39.8136
Frt06672,P,1.896,1.8912,1.9552,1.96,1.9392,1.8528,1.8432,1.8688,1.96,1.9376,2.0192,2.0384,2.1136,2.1664,2.752,2.6064,2.6592,2.5024,2.4112,2.3744,2.4096,2.3584,2.4784,2.4848
Frt07095,P,0.6336,0.132,0.0912,0.4032,0.672,1.86,2.9328,3.1512,3.2928,3.3576,2.832,3.0048,2.8848,2.6568,2.6928,2.4768,2.5512,3.024,2.8968,1.6296,0.3624,0.3528,0.1704,0.0912
Frt07402,P,0,0,0,0,0,0,0.08,0,0,0.08,0.08,0,0,0,0,0,0,0,0,0,0,0,0,0
Frt09954,P,12.24,12.08,12.48,12.4,11.6,9.2,7.68,7.84,8.08,7.52,7.84,7.6,7.36,7.52,7.68,7.84,7.92,10.16,11.04,11.12,11.6,12.08,12.24,12.24
Frt07977,P,24.6636176,24.11342921,22.96562239,21.1632811,21.17276711,20.4613166,19.28505176,18.95304153,19.68346405,20.44234459,21.19173912,21.42888929,20.37594254,18.14673095,18.02341286,20.39491456,21.8557596,22.33005994,24.14188723,23.97113911,23.34506266,22.34903195,22.62412615,23.58221283
Frt07459,P,25.3216,25.2672,25.28,25.2608,25.2512,25.2,20.3136,13.9712,12.8416,18.6144,23.4112,24.256,24.6528,24.7936,24.8992,24.4448,24.6464,20.416,18.0288,19.5584,14.2624,12.6816,9.3728,9.1136
Frt05032,P,2.428,2.3024,2.3296,2.372,2.3768,2.3232,2.9576,4.2864,4.6232,5.1872,5.2672,5.0912,5.2016,5.0688,5.0352,5.0128,4.8888,4.9784,4.92,4.7168,3.9712,2.4216,2.4216,2.2816
Frt05601,P,3.3564,3.1584,3.1056,3.2892,3.2544,3.2304,3.0048,2.9136,3.672,3.9216,3.7368,3.8052,3.438,3.2604,3.2256,2.6484,2.952,3.0816,4.1376,4.332,4.2948,4.644,4.2048,3.3228
Frt07896,P,5.2,5.152,5.008,4.952,4.896,4.936,4.856,4.792,4.832,4.992,4.96,4.896,4.824,4.864,4.88,4.88,4.864,4.848,4.984,5.288,5.312,4.992,4.808,4.736
Frt07894,P,0,0,0,0,0,0.04,0,0,0,0.04,0.04,0,0,0.04,0,0.04,0,0,0,0,0,0,0,0
Frt10116,P,1.9069,1.9086,1.9154,1.9116,1.9172,1.8048,1.5686,0.882,0.8684,0.8741,0.8548,0.8796,0.8719,0.8746,0.8731,0.877,0.876,1.0549,1.8189,1.8442,1.8609,1.8815,1.8898,1.8782
Frt10185,P,0.3263,0.3259,0.3258,0.3259,0.3259,0.3257,0.3254,0.3246,0.325,0.3251,0.3252,0.3249,0.3248,0.3251,0.3238,0.3241,0.3251,0.3259,0.3267,0.3263,0.3196,0.3191,0.3189,0.3187
Frt14437,P,67.65,67.65,67.65,67.65,67.65,67.65,0,0,0,0,0,0,0,0,0,0,0,0,67.65,67.65,67.65,67.65,67.65,67.65
Frt18681,P,35.7808,34.232,32.7888,31.856,32.3136,33.7568,43.7008,45.1264,46.8688,50.1952,46.3408,47.0624,50.3888,51.0752,48.312,48.752,46.7456,50.2656,45.7776,48.9808,48.8224,45.0208,40.1456,42.1696
Frt18700,P,45.04,45.04,45.04,45.04,45.04,45.04,0,0,0,0,0,0,0,0,0,0,0,0,45.04,45.04,45.04,45.04,45.04,45.04
Frt18865,P,4.5352,4.4896,4.5656,4.5792,4.684,4.892,2.2512,1.56,1.2624,1.5616,1.536,1.3568,1.2776,1.296,1.2872,1.7656,1.3432,1.4528,4.2176,4.7248,4.712,4.6808,4.6352,4.8832
Frt18864,P,0.276,0.27,0.2724,0.2748,0.2124,0.2664,0.1968,0.1764,0.1752,0.1716,0.1776,0.1884,0.1908,0.1812,0.1836,0.1956,0.1236,0.1788,0.2616,0.27,0.2628,0.2664,0.2616,0.264
Frt18863,P,0.7208,0.7808,0.7056,0.7088,0.756,0.6744,0.7536,0.7264,0.8192,1.0544,1.468,2.536,3.0728,3.2568,2.8016,1.7448,1.676,1.7848,2.416,2.3952,1.5664,0.6992,0.688,0.632
Frt19681,P,2.596,2.508,2.5344,2.5256,2.4904,2.5212,2.508,2.552,3.102,3.4936,3.7884,3.806,4.0612,3.9028,4.2636,3.7664,3.2956,3.0932,2.6444,2.5476,2.5696,2.5828,2.64,2.6136
Frt20836,P,10.1472,10.2144,9.9392,10.1952,10.1824,8.5664,4.0416,3.9872,4.2784,5.2384,4.8832,4.5088,4.2784,4.5728,4.3744,4.1248,4.3488,4.0064,7.6608,9.6864,9.808,9.9776,10.1088,10.1952
Frt20837,P,0,0,0,0,0,0,0,0,0,0,0,0,0.0292,0.008,0,0,0,0,0,0,0,0,0,0
Frt22094,P,3.0492,3.0536,3.0492,2.9832,2.9876,3.3704,3.9204,3.806,3.6168,4.3912,3.7092,4.0964,3.5684,3.4496,3.5596,3.5156,3.432,3.4716,3.8324,4.3076,3.8104,3.2516,3.0756,3.1064
Frt23202,P,6.1416,5.5952,5.8832,5.7912,5.4224,5.4096,5.4432,6.3176,9.1184,11.844,12.2936,13.1976,16.328,16.8648,17.0496,15.94,14.512,12.9336,13.4056,14.8696,14.5072,13.8928,10.8944,6.5936
Frt24734,P,15.0568,15.422,14.8104,13.266,15.6068,13.3144,12.936,13.7412,12.1396,14.41,14.1988,14.4804,17.468,18.502,18.7836,16.2844,13.4464,16.3724,12.5796,15.3164,13.7764,13.7632,15.3076,12.6588
Frt08874,P,59.938,48.07,34.914,32.706,31.74,38.456,42.136,51.934,58.006,68.402,71.898,77.257,83.904,87.86,89.93,94.369,106.398,128.363,145.153,146.257,142.945,134.826,121.417,72.473
