SERIE,SIC,MODELO,RESPALDO,Modelo,Nivel de autenticación,Contraseña (lectura),Tipo de autenticación,Medio,Host,Puerto,Período de integración,Contraseña (configuración),Factor multiplicativo
1474924,FRT03283,Elgama-Elektronika Ltd,P,Elgama-Elektronika Ltd,Bajo,************,ASCII,NET,172.32.131.68,2330,15,************,440
501515762,FRT04279,Circutor Electricity,P,Circutor Electricity,Bajo,************,ASCII,NET,172.32.189.129,2330,15,************,20
84080723,FRT02443,Actaris Electricity 6000,P,Actaris Electricity 6000,Alto,************,ASCII,NET,172.32.161.38,2330,15,************,0.44
,,,,,,,,,,,,,
*** Texto informativo ----- Eliminar durante la carga,,,,,,,,,,,,,
,,,,,,,,,,,,,
#,La presente plantilla muestra un ejemplo de formato para cargar datos a la plataforma del CGM.,,,,,,,,,,,,
#,Los títulos no deben modificarse.,,,,,,,,,,,,
#,"En el espacio de contraseñas, se debe reemplazar los asteriscos por el texto correspondiente",,,,,,,,,,,,
#,Usar el caracter punto (.) para separación de decimales,,,,,,,,,,,,
#,"Los nombres del modelo de medidor, Tipo de autenticación y Medio son los mismos extraídos de la plataforma. Deben ser iguales",,,,,,,,,,,,
#,"En el espacio de Respaldo, 'P' representa Principal, y 'R' de Respaldo",,,,,,,,,,,,
